[
  {
    "city": "Acton",
    "lat": 34.4708,
    "long": -118.1954
  },
  {
    "city": "Agoura Hills",
    "lat": 34.1533,
    "long": -118.7617
  },
  {
    "city": "Anaheim",
    "lat": 33.8366,
    "long": -117.9143
  },
  {
    "city": "Aliso Viejo",
    "lat": 33.5761,
    "long": -117.7253
  },
  {
    "city": "Beverly Hills",
    "lat": 34.0696,
    "long": -118.4053
  },
  {
    "city": "Burbank",
    "lat": 34.1808,
    "long": -118.3089
  },
  {
    "city": "Cerritos",
    "lat": 33.8658,
    "long": -118.0831
  },
  {
    "city": "Compton",
    "lat": 33.8958,
    "long": -118.2201
  },
  {
    "city": "Culver City",
    "lat": 34.0219,
    "long": -118.4814
  },
  {
    "city": "Duarte",
    "lat": 34.1399,
    "long": -117.9773
  },
  {
    "city": "El Segundo",
    "lat": 33.917,
    "long": -118.4159
  },
  {
    "city": "Glendale",
    "lat": 34.1425,
    "long": -118.2551
  },
  {
    "city": "Hawthorne",
    "lat": 33.9164,
    "long": -118.3526
  },
  {
    "city": "Huntington Park",
    "lat": 33.9817,
    "long": -118.2251
  },
  {
    "city": "Huntington Beach",
    "lat": 33.6603,
    "long": -118.0029
  },
  {
    "city": "La Mirada",
    "lat": 33.9069,
    "long": -118.0107
  },
  {
    "city": "Long Beach",
    "lat": 33.7701,
    "long": -118.1937
  },
  {
    "city": "Los Angeles",
    "lat": 34.0522,
    "long": -118.2437
  },
  {
    "city": "Flexible / Remote",
    "lat": 34.0522,
    "long": -118.2437
  },
  {
    "city": "Malibu",
    "lat": 34.0259,
    "long": -118.7798
  },
  {
    "city": "Manhattan Beach",
    "lat": 33.8847,
    "long": -118.4109
  },
  {
    "city": "Palmdale",
    "lat": 34.5794,
    "long": -118.1165
  },
  {
    "city": "Paramount",
    "lat": 33.8895,
    "long": -118.1598
  },
  {
    "city": "Pasadena",
    "lat": 34.1478,
    "long": -118.1445
  },
  {
    "city": "Redondo Beach",
    "lat": 33.8492,
    "long": -118.3884
  },
  {
    "city": "San Dimas",
    "lat": 34.1067,
    "long": -117.8067
  },
  {
    "city": "Santa Clarita",
    "lat": 34.3917,
    "long": -118.5426
  },
  {
    "city": "Santa Monica",
    "lat": 34.0219,
    "long": -118.4814
  },
  {
    "city": "Torrance",
    "lat": 33.8358,
    "long": -118.3406
  },
  {
    "city": "West Hollywood",
    "lat": 34.09,
    "long": -118.3617
  },
  {
    "city": "Westlake Village",
    "lat": 34.1458,
    "long": -118.8056
  }
]
